picorv32_wave.vcd
$version Generated by VerilatedVcd $end
$timescale 1ps $end
 $scope module TOP $end
  $var wire 1 G" clk $end
  $var wire 1 H" resetn $end
  $var wire 1 I" trap $end
  $var wire 1 J" mem_valid $end
  $var wire 1 K" mem_ready $end
  $var wire 32 L" mem_addr [31:0] $end
  $var wire 32 M" mem_rdata [31:0] $end
  $scope module picorv32_wrapper $end
   $var wire 1 G" clk $end
   $var wire 1 H" resetn $end
   $var wire 1 I" trap $end
   $var wire 1 J" mem_valid $end
   $var wire 1 K" mem_ready $end
   $var wire 32 L" mem_addr [31:0] $end
   $var wire 32 M" mem_rdata [31:0] $end
   $scope module cpu $end
    $var wire 1 N" ENABLE_COUNTERS [0:0] $end
    $var wire 1 O" ENABLE_COUNTERS64 [0:0] $end
    $var wire 1 O" ENABLE_REGS_16_31 [0:0] $end
    $var wire 1 O" ENABLE_REGS_DUALPORT [0:0] $end
    $var wire 1 N" LATCHED_MEM_RDATA [0:0] $end
    $var wire 1 O" TWO_STAGE_SHIFT [0:0] $end
    $var wire 1 N" BARREL_SHIFTER [0:0] $end
    $var wire 1 N" TWO_CYCLE_COMPARE [0:0] $end
    $var wire 1 N" TWO_CYCLE_ALU [0:0] $end
    $var wire 1 N" COMPRESSED_ISA [0:0] $end
    $var wire 1 O" CATCH_MISALIGN [0:0] $end
    $var wire 1 O" CATCH_ILLINSN [0:0] $end
    $var wire 1 N" ENABLE_PCPI [0:0] $end
    $var wire 1 N" ENABLE_MUL [0:0] $end
    $var wire 1 N" ENABLE_FAST_MUL [0:0] $end
    $var wire 1 N" ENABLE_DIV [0:0] $end
    $var wire 1 N" ENABLE_IRQ [0:0] $end
    $var wire 1 O" ENABLE_IRQ_QREGS [0:0] $end
    $var wire 1 O" ENABLE_IRQ_TIMER [0:0] $end
    $var wire 1 N" ENABLE_TRACE [0:0] $end
    $var wire 1 N" REGS_INIT_ZERO [0:0] $end
    $var wire 32 P" MASKED_IRQ [31:0] $end
    $var wire 32 Q" LATCHED_IRQ [31:0] $end
    $var wire 32 P" PROGADDR_RESET [31:0] $end
    $var wire 32 R" PROGADDR_IRQ [31:0] $end
    $var wire 32 Q" STACKADDR [31:0] $end
    $var wire 1 G" clk $end
    $var wire 1 H" resetn $end
    $var wire 1 I" trap $end
    $var wire 1 J" mem_valid $end
    $var wire 1 * mem_instr $end
    $var wire 1 K" mem_ready $end
    $var wire 32 L" mem_addr [31:0] $end
    $var wire 32 + mem_wdata [31:0] $end
    $var wire 4 , mem_wstrb [3:0] $end
    $var wire 32 M" mem_rdata [31:0] $end
    $var wire 1 # mem_la_read $end
    $var wire 1 $ mem_la_write $end
    $var wire 32 - mem_la_addr [31:0] $end
    $var wire 32 . mem_la_wdata [31:0] $end
    $var wire 4 / mem_la_wstrb [3:0] $end
    $var wire 1 0 pcpi_valid $end
    $var wire 32 1 pcpi_insn [31:0] $end
    $var wire 32 2 pcpi_rs1 [31:0] $end
    $var wire 32 3 pcpi_rs2 [31:0] $end
    $var wire 1 S" pcpi_wr $end
    $var wire 32 P" pcpi_rd [31:0] $end
    $var wire 1 S" pcpi_wait $end
    $var wire 1 S" pcpi_ready $end
    $var wire 32 P" irq [31:0] $end
    $var wire 32 4 eoi [31:0] $end
    $var wire 1 5 trace_valid $end
    $var wire 36 6 trace_data [35:0] $end
    $var wire 32 T" irq_timer [31:0] $end
    $var wire 32 U" irq_ebreak [31:0] $end
    $var wire 32 V" irq_buserror [31:0] $end
    $var wire 32 W" irqregs_offset [31:0] $end
    $var wire 32 W" regfile_size [31:0] $end
    $var wire 32 X" regindex_bits [31:0] $end
    $var wire 1 N" WITH_PCPI [0:0] $end
    $var wire 36 Y" TRACE_BRANCH [35:0] $end
    $var wire 36 [" TRACE_ADDR [35:0] $end
    $var wire 36 ]" TRACE_IRQ [35:0] $end
    $var wire 64 8 count_cycle [63:0] $end
    $var wire 64 : count_instr [63:0] $end
    $var wire 32 < reg_pc [31:0] $end
    $var wire 32 = reg_next_pc [31:0] $end
    $var wire 32 2 reg_op1 [31:0] $end
    $var wire 32 3 reg_op2 [31:0] $end
    $var wire 32 > reg_out [31:0] $end
    $var wire 5 ? reg_sh [4:0] $end
    $var wire 32 @ next_insn_opcode [31:0] $end
    $var wire 32 A dbg_insn_opcode [31:0] $end
    $var wire 32 B dbg_insn_addr [31:0] $end
    $var wire 1 J" dbg_mem_valid $end
    $var wire 1 * dbg_mem_instr $end
    $var wire 1 K" dbg_mem_ready $end
    $var wire 32 L" dbg_mem_addr [31:0] $end
    $var wire 32 + dbg_mem_wdata [31:0] $end
    $var wire 4 , dbg_mem_wstrb [3:0] $end
    $var wire 32 M" dbg_mem_rdata [31:0] $end
    $var wire 32 C next_pc [31:0] $end
    $var wire 1 D irq_delay $end
    $var wire 1 E irq_active $end
    $var wire 32 F irq_mask [31:0] $end
    $var wire 32 G irq_pending [31:0] $end
    $var wire 32 H timer [31:0] $end
    $var wire 32 I cpuregs[0] [31:0] $end
    $var wire 32 J cpuregs[1] [31:0] $end
    $var wire 32 K cpuregs[2] [31:0] $end
    $var wire 32 L cpuregs[3] [31:0] $end
    $var wire 32 M cpuregs[4] [31:0] $end
    $var wire 32 N cpuregs[5] [31:0] $end
    $var wire 32 O cpuregs[6] [31:0] $end
    $var wire 32 P cpuregs[7] [31:0] $end
    $var wire 32 Q cpuregs[8] [31:0] $end
    $var wire 32 R cpuregs[9] [31:0] $end
    $var wire 32 S cpuregs[10] [31:0] $end
    $var wire 32 T cpuregs[11] [31:0] $end
    $var wire 32 U cpuregs[12] [31:0] $end
    $var wire 32 V cpuregs[13] [31:0] $end
    $var wire 32 W cpuregs[14] [31:0] $end
    $var wire 32 X cpuregs[15] [31:0] $end
    $var wire 32 Y cpuregs[16] [31:0] $end
    $var wire 32 Z cpuregs[17] [31:0] $end
    $var wire 32 [ cpuregs[18] [31:0] $end
    $var wire 32 \ cpuregs[19] [31:0] $end
    $var wire 32 ] cpuregs[20] [31:0] $end
    $var wire 32 ^ cpuregs[21] [31:0] $end
    $var wire 32 _ cpuregs[22] [31:0] $end
    $var wire 32 ` cpuregs[23] [31:0] $end
    $var wire 32 a cpuregs[24] [31:0] $end
    $var wire 32 b cpuregs[25] [31:0] $end
    $var wire 32 c cpuregs[26] [31:0] $end
    $var wire 32 d cpuregs[27] [31:0] $end
    $var wire 32 e cpuregs[28] [31:0] $end
    $var wire 32 f cpuregs[29] [31:0] $end
    $var wire 32 g cpuregs[30] [31:0] $end
    $var wire 32 h cpuregs[31] [31:0] $end
    $var wire 32 _" i [31:0] $end
    $var wire 1 S" pcpi_mul_wr $end
    $var wire 32 P" pcpi_mul_rd [31:0] $end
    $var wire 1 S" pcpi_mul_wait $end
    $var wire 1 S" pcpi_mul_ready $end
    $var wire 1 S" pcpi_div_wr $end
    $var wire 32 P" pcpi_div_rd [31:0] $end
    $var wire 1 S" pcpi_div_wait $end
    $var wire 1 S" pcpi_div_ready $end
    $var wire 1 S" pcpi_int_wr $end
    $var wire 32 P" pcpi_int_rd [31:0] $end
    $var wire 1 S" pcpi_int_wait $end
    $var wire 1 S" pcpi_int_ready $end
    $var wire 2 i mem_state [1:0] $end
    $var wire 2 j mem_wordsize [1:0] $end
    $var wire 32 % mem_rdata_word [31:0] $end
    $var wire 32 k mem_rdata_q [31:0] $end
    $var wire 1 l mem_do_prefetch $end
    $var wire 1 m mem_do_rinst $end
    $var wire 1 n mem_do_rdata $end
    $var wire 1 o mem_do_wdata $end
    $var wire 1 & mem_xfer $end
    $var wire 1 p mem_la_secondword $end
    $var wire 1 q mem_la_firstword_reg $end
    $var wire 1 r last_mem_valid $end
    $var wire 1 S" mem_la_firstword $end
    $var wire 1 S" mem_la_firstword_xfer $end
    $var wire 1 s prefetched_high_word $end
    $var wire 1 ' clear_prefetched_high_word $end
    $var wire 16 `" mem_16bit_buffer [15:0] $end
    $var wire 32 ( mem_rdata_latched_noshuffle [31:0] $end
    $var wire 32 ( mem_rdata_latched [31:0] $end
    $var wire 1 S" mem_la_use_prefetched_high_word $end
    $var wire 1 t mem_busy $end
    $var wire 1 ) mem_done $end
    $var wire 1 u instr_lui $end
    $var wire 1 v instr_auipc $end
    $var wire 1 w instr_jal $end
    $var wire 1 x instr_jalr $end
    $var wire 1 y instr_beq $end
    $var wire 1 z instr_bne $end
    $var wire 1 { instr_blt $end
    $var wire 1 | instr_bge $end
    $var wire 1 } instr_bltu $end
    $var wire 1 ~ instr_bgeu $end
    $var wire 1 !! instr_lb $end
    $var wire 1 "! instr_lh $end
    $var wire 1 #! instr_lw $end
    $var wire 1 $! instr_lbu $end
    $var wire 1 %! instr_lhu $end
    $var wire 1 &! instr_sb $end
    $var wire 1 '! instr_sh $end
    $var wire 1 (! instr_sw $end
    $var wire 1 )! instr_addi $end
    $var wire 1 *! instr_slti $end
    $var wire 1 +! instr_sltiu $end
    $var wire 1 ,! instr_xori $end
    $var wire 1 -! instr_ori $end
    $var wire 1 .! instr_andi $end
    $var wire 1 /! instr_slli $end
    $var wire 1 0! instr_srli $end
    $var wire 1 1! instr_srai $end
    $var wire 1 2! instr_add $end
    $var wire 1 3! instr_sub $end
    $var wire 1 4! instr_sll $end
    $var wire 1 5! instr_slt $end
    $var wire 1 6! instr_sltu $end
    $var wire 1 7! instr_xor $end
    $var wire 1 8! instr_srl $end
    $var wire 1 9! instr_sra $end
    $var wire 1 :! instr_or $end
    $var wire 1 ;! instr_and $end
    $var wire 1 <! instr_rdcycle $end
    $var wire 1 =! instr_rdcycleh $end
    $var wire 1 >! instr_rdinstr $end
    $var wire 1 ?! instr_rdinstrh $end
    $var wire 1 @! instr_ecall_ebreak $end
    $var wire 1 A! instr_fence $end
    $var wire 1 B! instr_getq $end
    $var wire 1 C! instr_setq $end
    $var wire 1 D! instr_retirq $end
    $var wire 1 E! instr_maskirq $end
    $var wire 1 F! instr_waitirq $end
    $var wire 1 G! instr_timer $end
    $var wire 1 H! instr_trap $end
    $var wire 5 I! decoded_rd [4:0] $end
    $var wire 5 J! decoded_rs1 [4:0] $end
    $var wire 5 K! decoded_rs2 [4:0] $end
    $var wire 32 L! decoded_imm [31:0] $end
    $var wire 32 M! decoded_imm_j [31:0] $end
    $var wire 1 N! decoder_trigger $end
    $var wire 1 O! decoder_trigger_q $end
    $var wire 1 P! decoder_pseudo_trigger $end
    $var wire 1 Q! decoder_pseudo_trigger_q $end
    $var wire 1 D! compressed_instr $end
    $var wire 1 R! is_lui_auipc_jal $end
    $var wire 1 S! is_lb_lh_lw_lbu_lhu $end
    $var wire 1 T! is_slli_srli_srai $end
    $var wire 1 U! is_jalr_addi_slti_sltiu_xori_ori_andi $end
    $var wire 1 V! is_sb_sh_sw $end
    $var wire 1 W! is_sll_srl_sra $end
    $var wire 1 X! is_lui_auipc_jal_jalr_addi_add_sub $end
    $var wire 1 Y! is_slti_blt_slt $end
    $var wire 1 Z! is_sltiu_bltu_sltu $end
    $var wire 1 [! is_beq_bne_blt_bge_bltu_bgeu $end
    $var wire 1 \! is_lbu_lhu_lw $end
    $var wire 1 ]! is_alu_reg_imm $end
    $var wire 1 ^! is_alu_reg_reg $end
    $var wire 1 _! is_compare $end
    $var wire 1 `! is_rdcycle_rdcycleh_rdinstr_rdinstrh $end
    $var wire 64 a! new_ascii_instr [63:0] $end
    $var wire 64 c! dbg_ascii_instr [63:0] $end
    $var wire 32 e! dbg_insn_imm [31:0] $end
    $var wire 5 f! dbg_insn_rs1 [4:0] $end
    $var wire 5 g! dbg_insn_rs2 [4:0] $end
    $var wire 5 h! dbg_insn_rd [4:0] $end
    $var wire 32 i! dbg_rs1val [31:0] $end
    $var wire 32 j! dbg_rs2val [31:0] $end
    $var wire 1 k! dbg_rs1val_valid $end
    $var wire 1 l! dbg_rs2val_valid $end
    $var wire 64 m! q_ascii_instr [63:0] $end
    $var wire 32 o! q_insn_imm [31:0] $end
    $var wire 32 p! q_insn_opcode [31:0] $end
    $var wire 5 q! q_insn_rs1 [4:0] $end
    $var wire 5 r! q_insn_rs2 [4:0] $end
    $var wire 5 s! q_insn_rd [4:0] $end
    $var wire 1 t! dbg_next $end
    $var wire 1 u! launch_next_insn $end
    $var wire 1 v! dbg_valid_insn $end
    $var wire 64 w! cached_ascii_instr [63:0] $end
    $var wire 32 y! cached_insn_imm [31:0] $end
    $var wire 32 z! cached_insn_opcode [31:0] $end
    $var wire 5 {! cached_insn_rs1 [4:0] $end
    $var wire 5 |! cached_insn_rs2 [4:0] $end
    $var wire 5 }! cached_insn_rd [4:0] $end
    $var wire 8 a" cpu_state_trap [7:0] $end
    $var wire 8 b" cpu_state_fetch [7:0] $end
    $var wire 8 c" cpu_state_ld_rs1 [7:0] $end
    $var wire 8 d" cpu_state_ld_rs2 [7:0] $end
    $var wire 8 e" cpu_state_exec [7:0] $end
    $var wire 8 f" cpu_state_shift [7:0] $end
    $var wire 8 g" cpu_state_stmem [7:0] $end
    $var wire 8 h" cpu_state_ldmem [7:0] $end
    $var wire 8 ~! cpu_state [7:0] $end
    $var wire 2 !" irq_state [1:0] $end
    $var wire 128 "" dbg_ascii_state [127:0] $end
    $var wire 1 &" set_mem_do_rinst $end
    $var wire 1 '" set_mem_do_rdata $end
    $var wire 1 (" set_mem_do_wdata $end
    $var wire 1 )" latched_store $end
    $var wire 1 *" latched_stalu $end
    $var wire 1 +" latched_branch $end
    $var wire 1 ," latched_compr $end
    $var wire 1 -" latched_trace $end
    $var wire 1 ." latched_is_lu $end
    $var wire 1 /" latched_is_lh $end
    $var wire 1 0" latched_is_lb $end
    $var wire 5 1" latched_rd [4:0] $end
    $var wire 32 2" current_pc [31:0] $end
    $var wire 4 i" pcpi_timeout_counter [3:0] $end
    $var wire 1 3" pcpi_timeout $end
    $var wire 32 4" next_irq_pending [31:0] $end
    $var wire 1 5" do_waitirq $end
    $var wire 32 6" alu_out [31:0] $end
    $var wire 32 7" alu_out_q [31:0] $end
    $var wire 1 8" alu_out_0 $end
    $var wire 1 9" alu_out_0_q $end
    $var wire 1 :" alu_wait $end
    $var wire 1 ;" alu_wait_2 $end
    $var wire 32 <" alu_add_sub [31:0] $end
    $var wire 32 =" alu_shl [31:0] $end
    $var wire 32 >" alu_shr [31:0] $end
    $var wire 1 ?" alu_eq $end
    $var wire 1 @" alu_ltu $end
    $var wire 1 A" alu_lts $end
    $var wire 1 B" clear_prefetched_high_word_q $end
    $var wire 1 C" cpuregs_write $end
    $var wire 32 D" cpuregs_wrdata [31:0] $end
    $var wire 32 E" cpuregs_rs1 [31:0] $end
    $var wire 32 F" cpuregs_rs2 [31:0] $end
    $var wire 5 j" decoded_rs [4:0] $end
   $upscope $end
  $upscope $end
 $upscope $end
$enddefinitions $end


#0
0#
0$
b00000000000000000000000000000000 %
0&
0'
b00000000000000000000000000000000 (
0)
0*
b00000000000000000000000000000000 +
b0000 ,
b00000000000000000000000000000000 -
b00000000000000000000000000000000 .
b1111 /
00
b00000000000000000000000000000000 1
b00000000000000000000000000000000 2
b00000000000000000000000000000000 3
b00000000000000000000000000000000 4
05
b000000000000000000000000000000000000 6
b0000000000000000000000000000000000000000000000000000000000000000 8
b0000000000000000000000000000000000000000000000000000000000000000 :
b00000000000000000000000000000000 <
b00000000000000000000000000000000 =
b00000000000000000000000000000000 >
b00000 ?
b00000000000000000000000000000000 @
b00000000000000000000000000000000 A
b00000000000000000000000000000000 B
b00000000000000000000000000000000 C
0D
0E
b00000000000000000000000000000000 F
b00000000000000000000000000000000 G
b00000000000000000000000000000000 H
b00000000000000000000000000000000 I
b00000000000000000000000000000000 J
b00000000000000000000000000000000 K
b00000000000000000000000000000000 L
b00000000000000000000000000000000 M
b00000000000000000000000000000000 N
b00000000000000000000000000000000 O
b00000000000000000000000000000000 P
b00000000000000000000000000000000 Q
b00000000000000000000000000000000 R
b00000000000000000000000000000000 S
b00000000000000000000000000000000 T
b00000000000000000000000000000000 U
b00000000000000000000000000000000 V
b00000000000000000000000000000000 W
b00000000000000000000000000000000 X
b00000000000000000000000000000000 Y
b00000000000000000000000000000000 Z
b00000000000000000000000000000000 [
b00000000000000000000000000000000 \
b00000000000000000000000000000000 ]
b00000000000000000000000000000000 ^
b00000000000000000000000000000000 _
b00000000000000000000000000000000 `
b00000000000000000000000000000000 a
b00000000000000000000000000000000 b
b00000000000000000000000000000000 c
b00000000000000000000000000000000 d
b00000000000000000000000000000000 e
b00000000000000000000000000000000 f
b00000000000000000000000000000000 g
b00000000000000000000000000000000 h
b00 i
b00 j
b00000000000000000000000000000000 k
0l
0m
0n
0o
0p
0q
0r
0s
0t
0u
0v
0w
0x
0y
0z
0{
0|
0}
0~
0!!
0"!
0#!
0$!
0%!
0&!
0'!
0(!
0)!
0*!
0+!
0,!
0-!
0.!
0/!
00!
01!
02!
03!
04!
05!
06!
07!
08!
09!
0:!
0;!
0<!
0=!
0>!
0?!
0@!
0A!
0B!
0C!
0D!
0E!
0F!
0G!
1H!
b00000 I!
b00000 J!
b00000 K!
b00000000000000000000000000000000 L!
b00000000000000000000000000000000 M!
0N!
0O!
0P!
0Q!
0R!
0S!
0T!
0U!
0V!
0W!
0X!
0Y!
0Z!
0[!
0\!
0]!
0^!
0_!
0`!
b0000000000000000000000000000000000000000000000000000000000000000 a!
b0000000000000000000000000000000000000000000000000000000000000000 c!
b00000000000000000000000000000000 e!
b00000 f!
b00000 g!
b00000 h!
b00000000000000000000000000000000 i!
b00000000000000000000000000000000 j!
0k!
0l!
b0000000000000000000000000000000000000000000000000000000000000000 m!
b00000000000000000000000000000000 o!
b00000000000000000000000000000000 p!
b00000 q!
b00000 r!
b00000 s!
0t!
0u!
0v!
b0000000000000000000000000000000000000000000000000000000000000000 w!
b00000000000000000000000000000000 y!
b00000000000000000000000000000000 z!
b00000 {!
b00000 |!
b00000 }!
b00000000 ~!
b00 !"
b00000000000000000000000000000000000000000000000000000000000000000000000000000000000000000000000000000000000000000000000000000000 ""
0&"
0'"
0("
0)"
0*"
0+"
0,"
0-"
0."
0/"
00"
b00000 1"
b00000000000000000000000000000000 2"
03"
b00000000000000000000000000000000 4"
05"
b00000000000000000000000000000000 6"
b00000000000000000000000000000000 7"
08"
09"
0:"
0;"
b00000000000000000000000000000000 <"
b00000000000000000000000000000000 ="
b00000000000000000000000000000000 >"
1?"
0@"
0A"
0B"
0C"
b00000000000000000000000000000000 D"
b00000000000000000000000000000000 E"
b00000000000000000000000000000000 F"
0G"
0H"
0I"
0J"
0K"
b00000000000000000000000000000000 L"
b00000000000000000000000000000000 M"
0N"
1O"
b00000000000000000000000000000000 P"
b11111111111111111111111111111111 Q"
b00000000000000000000000000010000 R"
0S"
b00000000000000000000000000000000 T"
b00000000000000000000000000000001 U"
b00000000000000000000000000000010 V"
b00000000000000000000000000100000 W"
b00000000000000000000000000000101 X"
b000100000000000000000000000000000000 Y"
b001000000000000000000000000000000000 ["
b100000000000000000000000000000000000 ]"
b00000000000000000000000000000000 _"
b0000000000000000 `"
b10000000 a"
b01000000 b"
b00100000 c"
b00010000 d"
b00001000 e"
b00000100 f"
b00000010 g"
b00000001 h"
b0000 i"
b00000 j"
#1
b11111111111111111111111111111111 F
b01000000 ~!
b00000000000000000000000000000000000000000000000000000000000000000000000000000000000000000110011001100101011101000110001101101000 ""
1G"
#2
0G"
#3
1G"
#4
0G"
#5
1G"
#6
0G"
#7
1G"
#8
0G"
#9
1G"
#10
0G"
#11
1#
b00000000000000000000000000010011 %
1m
1t
1G"
1H"
1K"
b00000000000000000000000000010011 M"
#12
0G"
#13
0#
1&
b00000000000000000000000000010011 (
1)
1*
b01 i
1G"
1J"
#14
0G"
#15
0&
0)
b00000000000000000000000000010011 @
b00 i
b00000000000000000000000000010011 k
0m
0t
1N!
1]!
1u!
1G"
0J"
#16
0G"
#17
1#
b00000000000000000000000000000100 -
b00000000000000000000000000000100 =
b00000000000000000000000000010011 A
b00000000000000000000000000000100 C
1l
1t
1)!
0H!
0N!
1O!
1U!
b0000000000000000000000000000000001100001011001000110010001101001 a!
b0000000000000000000000000000000001100001011001000110010001101001 c!
1t!
0u!
1v!
b00100000 ~!
b00000000000000000000000000000000000000000000000000000000000000000000000000000000011011000110010001011111011100100111001100110001 ""
1G"
#18
0G"
#19
0#
1&
1)
b01 i
1m
0O!
1X!
1k!
b0000000000000000000000000000000001100001011001000110010001101001 m!
b00000000000000000000000000010011 p!
0t!
b0000000000000000000000000000000001100001011001000110010001101001 w!
b00000000000000000000000000010011 z!
b00001000 ~!
b00000000000000000000000000000000000000000000000000000000000000000000000000000000000000000000000001100101011110000110010101100011 ""
1G"
1J"
b00000000000000000000000000000100 L"
#20
0G"
#21
0&
0)
b00000000000000000000000000000000 -
b00 i
0l
0m
0t
1N!
1u!
b01000000 ~!
b00000000000000000000000000000000000000000000000000000000000000000000000000000000000000000110011001100101011101000110001101101000 ""
1)"
1*"
1C"
1G"
0J"
#22
0G"
#23
1#
b00000000000000000000000000001000 -
b00000000000000000000000000000100 <
b00000000000000000000000000001000 =
b00000000000000000000000000000100 B
b00000000000000000000000000001000 C
1l
1t
0N!
1O!
0X!
0k!
1t!
0u!
b00100000 ~!
b00000000000000000000000000000000000000000000000000000000000000000000000000000000011011000110010001011111011100100111001100110001 ""
0)"
0*"
0C"
1G"
#24
0G"
#25
0#
1&
1)
b01 i
1m
0O!
1X!
1k!
0t!
b00001000 ~!
b00000000000000000000000000000000000000000000000000000000000000000000000000000000000000000000000001100101011110000110010101100011 ""
1G"
1J"
b00000000000000000000000000001000 L"
#26
0G"
#27
0&
0)
b00000000000000000000000000000000 -
b00000000000000000000000000000100 >
b00 i
0l
0m
0t
1N!
1u!
b01000000 ~!
b00000000000000000000000000000000000000000000000000000000000000000000000000000000000000000110011001100101011101000110001101101000 ""
1)"
1*"
1C"
1G"
0J"
#28
0G"
#29
1#
b00000000000000000000000000001100 -
b00000000000000000000000000001000 <
b00000000000000000000000000001100 =
b00000000000000000000000000000000 >
b00000000000000000000000000001000 B
b00000000000000000000000000001100 C
1l
1t
0N!
1O!
0X!
0k!
1t!
0u!
b00100000 ~!
b00000000000000000000000000000000000000000000000000000000000000000000000000000000011011000110010001011111011100100111001100110001 ""
0)"
0*"
0C"
1G"
#30
0G"
#31
0#
1&
1)
b01 i
1m
0O!
1X!
1k!
0t!
b00001000 ~!
b00000000000000000000000000000000000000000000000000000000000000000000000000000000000000000000000001100101011110000110010101100011 ""
1G"
1J"
b00000000000000000000000000001100 L"
#32
0G"
#33
0&
0)
b00000000000000000000000000000000 -
b00000000000000000000000000001000 >
b00 i
0l
0m
0t
1N!
1u!
b01000000 ~!
b00000000000000000000000000000000000000000000000000000000000000000000000000000000000000000110011001100101011101000110001101101000 ""
1)"
1*"
1C"
1G"
0J"
#34
0G"
#35
1#
b00000000000000000000000000010000 -
b00000000000000000000000000001100 <
b00000000000000000000000000010000 =
b00000000000000000000000000000000 >
b00000000000000000000000000001100 B
b00000000000000000000000000010000 C
1l
1t
0N!
1O!
0X!
0k!
1t!
0u!
b00100000 ~!
b00000000000000000000000000000000000000000000000000000000000000000000000000000000011011000110010001011111011100100111001100110001 ""
0)"
0*"
0C"
1G"
#36
0G"
#37
0#
1&
1)
b01 i
1m
0O!
1X!
1k!
0t!
b00001000 ~!
b00000000000000000000000000000000000000000000000000000000000000000000000000000000000000000000000001100101011110000110010101100011 ""
1G"
1J"
b00000000000000000000000000010000 L"
#38
0G"
#39
0&
0)
b00000000000000000000000000000000 -
b00000000000000000000000000001100 >
b00 i
0l
0m
0t
1N!
1u!
b01000000 ~!
b00000000000000000000000000000000000000000000000000000000000000000000000000000000000000000110011001100101011101000110001101101000 ""
1)"
1*"
1C"
1G"
0J"
#40
0G"
#41
1#
b00000000000000000000000000010100 -
b00000000000000000000000000010000 <
b00000000000000000000000000010100 =
b00000000000000000000000000000000 >
b00000000000000000000000000010000 B
b00000000000000000000000000010100 C
1l
1t
0N!
1O!
0X!
0k!
1t!
0u!
b00100000 ~!
b00000000000000000000000000000000000000000000000000000000000000000000000000000000011011000110010001011111011100100111001100110001 ""
0)"
0*"
0C"
1G"
#42
0G"
#43
0#
1&
1)
b01 i
1m
0O!
1X!
1k!
0t!
b00001000 ~!
b00000000000000000000000000000000000000000000000000000000000000000000000000000000000000000000000001100101011110000110010101100011 ""
1G"
1J"
b00000000000000000000000000010100 L"
#44
0G"
#45
0&
0)
b00000000000000000000000000000000 -
b00000000000000000000000000010000 >
b00 i
0l
0m
0t
1N!
1u!
b01000000 ~!
b00000000000000000000000000000000000000000000000000000000000000000000000000000000000000000110011001100101011101000110001101101000 ""
1)"
1*"
1C"
1G"
0J"
#46
0G"
#47
1#
b00000000000000000000000000011000 -
b00000000000000000000000000010100 <
b00000000000000000000000000011000 =
b00000000000000000000000000000000 >
b00000000000000000000000000010100 B
b00000000000000000000000000011000 C
1l
1t
0N!
1O!
0X!
0k!
1t!
0u!
b00100000 ~!
b00000000000000000000000000000000000000000000000000000000000000000000000000000000011011000110010001011111011100100111001100110001 ""
0)"
0*"
0C"
1G"
#48
0G"
#49
0#
1&
1)
b01 i
1m
0O!
1X!
1k!
0t!
b00001000 ~!
b00000000000000000000000000000000000000000000000000000000000000000000000000000000000000000000000001100101011110000110010101100011 ""
1G"
1J"
b00000000000000000000000000011000 L"
#50
0G"
#51
0&
0)
b00000000000000000000000000000000 -
b00000000000000000000000000010100 >
b00 i
0l
0m
0t
1N!
1u!
b01000000 ~!
b00000000000000000000000000000000000000000000000000000000000000000000000000000000000000000110011001100101011101000110001101101000 ""
1)"
1*"
1C"
1G"
0J"
#52
0G"
#53
1#
b00000000000000000000000000011100 -
b00000000000000000000000000011000 <
b00000000000000000000000000011100 =
b00000000000000000000000000000000 >
b00000000000000000000000000011000 B
b00000000000000000000000000011100 C
1l
1t
0N!
1O!
0X!
0k!
1t!
0u!
b00100000 ~!
b00000000000000000000000000000000000000000000000000000000000000000000000000000000011011000110010001011111011100100111001100110001 ""
0)"
0*"
0C"
1G"
#54
0G"
#55
0#
1&
1)
b01 i
1m
0O!
1X!
1k!
0t!
b00001000 ~!
b00000000000000000000000000000000000000000000000000000000000000000000000000000000000000000000000001100101011110000110010101100011 ""
1G"
1J"
b00000000000000000000000000011100 L"
#56
0G"
#57
0&
0)
b00000000000000000000000000000000 -
b00000000000000000000000000011000 >
b00 i
0l
0m
0t
1N!
1u!
b01000000 ~!
b00000000000000000000000000000000000000000000000000000000000000000000000000000000000000000110011001100101011101000110001101101000 ""
1)"
1*"
1C"
1G"
0J"
#58
0G"
#59
1#
b00000000000000000000000000100000 -
b00000000000000000000000000011100 <
b00000000000000000000000000100000 =
b00000000000000000000000000000000 >
b00000000000000000000000000011100 B
b00000000000000000000000000100000 C
1l
1t
0N!
1O!
0X!
0k!
1t!
0u!
b00100000 ~!
b00000000000000000000000000000000000000000000000000000000000000000000000000000000011011000110010001011111011100100111001100110001 ""
0)"
0*"
0C"
1G"
#60
0G"
#61
0#
1&
1)
b01 i
1m
0O!
1X!
1k!
0t!
b00001000 ~!
b00000000000000000000000000000000000000000000000000000000000000000000000000000000000000000000000001100101011110000110010101100011 ""
1G"
1J"
b00000000000000000000000000100000 L"
#62
0G"
#63
0&
0)
b00000000000000000000000000000000 -
b00000000000000000000000000011100 >
b00 i
0l
0m
0t
1N!
1u!
b01000000 ~!
b00000000000000000000000000000000000000000000000000000000000000000000000000000000000000000110011001100101011101000110001101101000 ""
1)"
1*"
1C"
1G"
0J"
#64
0G"
#65
1#
b00000000000000000000000000100100 -
b00000000000000000000000000100000 <
b00000000000000000000000000100100 =
b00000000000000000000000000000000 >
b00000000000000000000000000100000 B
b00000000000000000000000000100100 C
1l
1t
0N!
1O!
0X!
0k!
1t!
0u!
b00100000 ~!
b00000000000000000000000000000000000000000000000000000000000000000000000000000000011011000110010001011111011100100111001100110001 ""
0)"
0*"
0C"
1G"
#66
0G"
#67
0#
1&
1)
b01 i
1m
0O!
1X!
1k!
0t!
b00001000 ~!
b00000000000000000000000000000000000000000000000000000000000000000000000000000000000000000000000001100101011110000110010101100011 ""
1G"
1J"
b00000000000000000000000000100100 L"
#68
0G"
#69
0&
0)
b00000000000000000000000000000000 -
b00000000000000000000000000100000 >
b00 i
0l
0m
0t
1N!
1u!
b01000000 ~!
b00000000000000000000000000000000000000000000000000000000000000000000000000000000000000000110011001100101011101000110001101101000 ""
1)"
1*"
1C"
1G"
0J"
#70
0G"
#71
1#
b00000000000000000000000000101000 -
b00000000000000000000000000100100 <
b00000000000000000000000000101000 =
b00000000000000000000000000000000 >
b00000000000000000000000000100100 B
b00000000000000000000000000101000 C
1l
1t
0N!
1O!
0X!
0k!
1t!
0u!
b00100000 ~!
b00000000000000000000000000000000000000000000000000000000000000000000000000000000011011000110010001011111011100100111001100110001 ""
0)"
0*"
0C"
1G"
#72
0G"
#73
0#
1&
1)
b01 i
1m
0O!
1X!
1k!
0t!
b00001000 ~!
b00000000000000000000000000000000000000000000000000000000000000000000000000000000000000000000000001100101011110000110010101100011 ""
1G"
1J"
b00000000000000000000000000101000 L"
#74
0G"
#75
0&
0)
b00000000000000000000000000000000 -
b00000000000000000000000000100100 >
b00 i
0l
0m
0t
1N!
1u!
b01000000 ~!
b00000000000000000000000000000000000000000000000000000000000000000000000000000000000000000110011001100101011101000110001101101000 ""
1)"
1*"
1C"
1G"
0J"
#76
0G"
#77
1#
b00000000000000000000000000101100 -
b00000000000000000000000000101000 <
b00000000000000000000000000101100 =
b00000000000000000000000000000000 >
b00000000000000000000000000101000 B
b00000000000000000000000000101100 C
1l
1t
0N!
1O!
0X!
0k!
1t!
0u!
b00100000 ~!
b00000000000000000000000000000000000000000000000000000000000000000000000000000000011011000110010001011111011100100111001100110001 ""
0)"
0*"
0C"
1G"
#78
0G"
