picorv32_wave.vcd
$version Generated by VerilatedVcd $end
$timescale 1ps $end
 $scope module TOP $end
  $var wire 1 D" clk $end
  $var wire 1 E" resetn $end
  $var wire 1 F" trap $end
  $var wire 1 G" mem_valid $end
  $var wire 1 H" mem_ready $end
  $var wire 32 I" mem_addr [31:0] $end
  $var wire 32 J" mem_wdata [31:0] $end
  $var wire 4 K" mem_wstrb [3:0] $end
  $var wire 32 L" mem_rdata [31:0] $end
  $var wire 1 M" mem_instr $end
  $scope module picorv32_wrapper $end
   $var wire 1 D" clk $end
   $var wire 1 E" resetn $end
   $var wire 1 F" trap $end
   $var wire 1 G" mem_valid $end
   $var wire 1 H" mem_ready $end
   $var wire 32 I" mem_addr [31:0] $end
   $var wire 32 J" mem_wdata [31:0] $end
   $var wire 4 K" mem_wstrb [3:0] $end
   $var wire 32 L" mem_rdata [31:0] $end
   $var wire 1 M" mem_instr $end
   $scope module picorv32_core $end
    $var wire 1 N" ENABLE_COUNTERS [0:0] $end
    $var wire 1 N" ENABLE_COUNTERS64 [0:0] $end
    $var wire 1 N" ENABLE_REGS_16_31 [0:0] $end
    $var wire 1 N" ENABLE_REGS_DUALPORT [0:0] $end
    $var wire 1 O" LATCHED_MEM_RDATA [0:0] $end
    $var wire 1 N" TWO_STAGE_SHIFT [0:0] $end
    $var wire 1 O" BARREL_SHIFTER [0:0] $end
    $var wire 1 O" TWO_CYCLE_COMPARE [0:0] $end
    $var wire 1 O" TWO_CYCLE_ALU [0:0] $end
    $var wire 1 O" COMPRESSED_ISA [0:0] $end
    $var wire 1 N" CATCH_MISALIGN [0:0] $end
    $var wire 1 N" CATCH_ILLINSN [0:0] $end
    $var wire 1 O" ENABLE_PCPI [0:0] $end
    $var wire 1 O" ENABLE_MUL [0:0] $end
    $var wire 1 O" ENABLE_FAST_MUL [0:0] $end
    $var wire 1 O" ENABLE_DIV [0:0] $end
    $var wire 1 O" ENABLE_IRQ [0:0] $end
    $var wire 1 N" ENABLE_IRQ_QREGS [0:0] $end
    $var wire 1 N" ENABLE_IRQ_TIMER [0:0] $end
    $var wire 1 O" ENABLE_TRACE [0:0] $end
    $var wire 1 O" REGS_INIT_ZERO [0:0] $end
    $var wire 32 P" MASKED_IRQ [31:0] $end
    $var wire 32 Q" LATCHED_IRQ [31:0] $end
    $var wire 32 P" PROGADDR_RESET [31:0] $end
    $var wire 32 R" PROGADDR_IRQ [31:0] $end
    $var wire 32 Q" STACKADDR [31:0] $end
    $var wire 1 D" clk $end
    $var wire 1 E" resetn $end
    $var wire 1 F" trap $end
    $var wire 1 G" mem_valid $end
    $var wire 1 M" mem_instr $end
    $var wire 1 H" mem_ready $end
    $var wire 32 I" mem_addr [31:0] $end
    $var wire 32 J" mem_wdata [31:0] $end
    $var wire 4 K" mem_wstrb [3:0] $end
    $var wire 32 L" mem_rdata [31:0] $end
    $var wire 1 # mem_la_read $end
    $var wire 1 $ mem_la_write $end
    $var wire 32 * mem_la_addr [31:0] $end
    $var wire 32 + mem_la_wdata [31:0] $end
    $var wire 4 , mem_la_wstrb [3:0] $end
    $var wire 1 - pcpi_valid $end
    $var wire 32 . pcpi_insn [31:0] $end
    $var wire 32 / pcpi_rs1 [31:0] $end
    $var wire 32 0 pcpi_rs2 [31:0] $end
    $var wire 1 S" pcpi_wr $end
    $var wire 32 T" pcpi_rd [31:0] $end
    $var wire 1 U" pcpi_wait $end
    $var wire 1 V" pcpi_ready $end
    $var wire 32 W" irq [31:0] $end
    $var wire 32 1 eoi [31:0] $end
    $var wire 1 2 trace_valid $end
    $var wire 36 3 trace_data [35:0] $end
    $var wire 32 X" irq_timer [31:0] $end
    $var wire 32 Y" irq_ebreak [31:0] $end
    $var wire 32 Z" irq_buserror [31:0] $end
    $var wire 32 [" irqregs_offset [31:0] $end
    $var wire 32 [" regfile_size [31:0] $end
    $var wire 32 \" regindex_bits [31:0] $end
    $var wire 1 O" WITH_PCPI [0:0] $end
    $var wire 36 ]" TRACE_BRANCH [35:0] $end
    $var wire 36 _" TRACE_ADDR [35:0] $end
    $var wire 36 a" TRACE_IRQ [35:0] $end
    $var wire 64 5 count_cycle [63:0] $end
    $var wire 64 7 count_instr [63:0] $end
    $var wire 32 9 reg_pc [31:0] $end
    $var wire 32 : reg_next_pc [31:0] $end
    $var wire 32 / reg_op1 [31:0] $end
    $var wire 32 0 reg_op2 [31:0] $end
    $var wire 32 ; reg_out [31:0] $end
    $var wire 5 < reg_sh [4:0] $end
    $var wire 32 = next_insn_opcode [31:0] $end
    $var wire 32 > dbg_insn_opcode [31:0] $end
    $var wire 32 ? dbg_insn_addr [31:0] $end
    $var wire 1 G" dbg_mem_valid $end
    $var wire 1 M" dbg_mem_instr $end
    $var wire 1 H" dbg_mem_ready $end
    $var wire 32 I" dbg_mem_addr [31:0] $end
    $var wire 32 J" dbg_mem_wdata [31:0] $end
    $var wire 4 K" dbg_mem_wstrb [3:0] $end
    $var wire 32 L" dbg_mem_rdata [31:0] $end
    $var wire 32 @ next_pc [31:0] $end
    $var wire 1 A irq_delay $end
    $var wire 1 B irq_active $end
    $var wire 32 C irq_mask [31:0] $end
    $var wire 32 D irq_pending [31:0] $end
    $var wire 32 E timer [31:0] $end
    $var wire 32 F cpuregs[0] [31:0] $end
    $var wire 32 G cpuregs[1] [31:0] $end
    $var wire 32 H cpuregs[2] [31:0] $end
    $var wire 32 I cpuregs[3] [31:0] $end
    $var wire 32 J cpuregs[4] [31:0] $end
    $var wire 32 K cpuregs[5] [31:0] $end
    $var wire 32 L cpuregs[6] [31:0] $end
    $var wire 32 M cpuregs[7] [31:0] $end
    $var wire 32 N cpuregs[8] [31:0] $end
    $var wire 32 O cpuregs[9] [31:0] $end
    $var wire 32 P cpuregs[10] [31:0] $end
    $var wire 32 Q cpuregs[11] [31:0] $end
    $var wire 32 R cpuregs[12] [31:0] $end
    $var wire 32 S cpuregs[13] [31:0] $end
    $var wire 32 T cpuregs[14] [31:0] $end
    $var wire 32 U cpuregs[15] [31:0] $end
    $var wire 32 V cpuregs[16] [31:0] $end
    $var wire 32 W cpuregs[17] [31:0] $end
    $var wire 32 X cpuregs[18] [31:0] $end
    $var wire 32 Y cpuregs[19] [31:0] $end
    $var wire 32 Z cpuregs[20] [31:0] $end
    $var wire 32 [ cpuregs[21] [31:0] $end
    $var wire 32 \ cpuregs[22] [31:0] $end
    $var wire 32 ] cpuregs[23] [31:0] $end
    $var wire 32 ^ cpuregs[24] [31:0] $end
    $var wire 32 _ cpuregs[25] [31:0] $end
    $var wire 32 ` cpuregs[26] [31:0] $end
    $var wire 32 a cpuregs[27] [31:0] $end
    $var wire 32 b cpuregs[28] [31:0] $end
    $var wire 32 c cpuregs[29] [31:0] $end
    $var wire 32 d cpuregs[30] [31:0] $end
    $var wire 32 e cpuregs[31] [31:0] $end
    $var wire 32 c" i [31:0] $end
    $var wire 1 d" pcpi_mul_wr $end
    $var wire 32 P" pcpi_mul_rd [31:0] $end
    $var wire 1 d" pcpi_mul_wait $end
    $var wire 1 d" pcpi_mul_ready $end
    $var wire 1 d" pcpi_div_wr $end
    $var wire 32 P" pcpi_div_rd [31:0] $end
    $var wire 1 d" pcpi_div_wait $end
    $var wire 1 d" pcpi_div_ready $end
    $var wire 1 d" pcpi_int_wr $end
    $var wire 32 P" pcpi_int_rd [31:0] $end
    $var wire 1 d" pcpi_int_wait $end
    $var wire 1 d" pcpi_int_ready $end
    $var wire 2 f mem_state [1:0] $end
    $var wire 2 g mem_wordsize [1:0] $end
    $var wire 32 % mem_rdata_word [31:0] $end
    $var wire 32 h mem_rdata_q [31:0] $end
    $var wire 1 i mem_do_prefetch $end
    $var wire 1 j mem_do_rinst $end
    $var wire 1 k mem_do_rdata $end
    $var wire 1 l mem_do_wdata $end
    $var wire 1 & mem_xfer $end
    $var wire 1 m mem_la_secondword $end
    $var wire 1 n mem_la_firstword_reg $end
    $var wire 1 o last_mem_valid $end
    $var wire 1 d" mem_la_firstword $end
    $var wire 1 d" mem_la_firstword_xfer $end
    $var wire 1 p prefetched_high_word $end
    $var wire 1 ' clear_prefetched_high_word $end
    $var wire 16 e" mem_16bit_buffer [15:0] $end
    $var wire 32 ( mem_rdata_latched_noshuffle [31:0] $end
    $var wire 32 ( mem_rdata_latched [31:0] $end
    $var wire 1 d" mem_la_use_prefetched_high_word $end
    $var wire 1 q mem_busy $end
    $var wire 1 ) mem_done $end
    $var wire 1 r instr_lui $end
    $var wire 1 s instr_auipc $end
    $var wire 1 t instr_jal $end
    $var wire 1 u instr_jalr $end
    $var wire 1 v instr_beq $end
    $var wire 1 w instr_bne $end
    $var wire 1 x instr_blt $end
    $var wire 1 y instr_bge $end
    $var wire 1 z instr_bltu $end
    $var wire 1 { instr_bgeu $end
    $var wire 1 | instr_lb $end
    $var wire 1 } instr_lh $end
    $var wire 1 ~ instr_lw $end
    $var wire 1 !! instr_lbu $end
    $var wire 1 "! instr_lhu $end
    $var wire 1 #! instr_sb $end
    $var wire 1 $! instr_sh $end
    $var wire 1 %! instr_sw $end
    $var wire 1 &! instr_addi $end
    $var wire 1 '! instr_slti $end
    $var wire 1 (! instr_sltiu $end
    $var wire 1 )! instr_xori $end
    $var wire 1 *! instr_ori $end
    $var wire 1 +! instr_andi $end
    $var wire 1 ,! instr_slli $end
    $var wire 1 -! instr_srli $end
    $var wire 1 .! instr_srai $end
    $var wire 1 /! instr_add $end
    $var wire 1 0! instr_sub $end
    $var wire 1 1! instr_sll $end
    $var wire 1 2! instr_slt $end
    $var wire 1 3! instr_sltu $end
    $var wire 1 4! instr_xor $end
    $var wire 1 5! instr_srl $end
    $var wire 1 6! instr_sra $end
    $var wire 1 7! instr_or $end
    $var wire 1 8! instr_and $end
    $var wire 1 9! instr_rdcycle $end
    $var wire 1 :! instr_rdcycleh $end
    $var wire 1 ;! instr_rdinstr $end
    $var wire 1 <! instr_rdinstrh $end
    $var wire 1 =! instr_ecall_ebreak $end
    $var wire 1 >! instr_fence $end
    $var wire 1 ?! instr_getq $end
    $var wire 1 @! instr_setq $end
    $var wire 1 A! instr_retirq $end
    $var wire 1 B! instr_maskirq $end
    $var wire 1 C! instr_waitirq $end
    $var wire 1 D! instr_timer $end
    $var wire 1 E! instr_trap $end
    $var wire 5 F! decoded_rd [4:0] $end
    $var wire 5 G! decoded_rs1 [4:0] $end
    $var wire 5 H! decoded_rs2 [4:0] $end
    $var wire 32 I! decoded_imm [31:0] $end
    $var wire 32 J! decoded_imm_j [31:0] $end
    $var wire 1 K! decoder_trigger $end
    $var wire 1 L! decoder_trigger_q $end
    $var wire 1 M! decoder_pseudo_trigger $end
    $var wire 1 N! decoder_pseudo_trigger_q $end
    $var wire 1 A! compressed_instr $end
    $var wire 1 O! is_lui_auipc_jal $end
    $var wire 1 P! is_lb_lh_lw_lbu_lhu $end
    $var wire 1 Q! is_slli_srli_srai $end
    $var wire 1 R! is_jalr_addi_slti_sltiu_xori_ori_andi $end
    $var wire 1 S! is_sb_sh_sw $end
    $var wire 1 T! is_sll_srl_sra $end
    $var wire 1 U! is_lui_auipc_jal_jalr_addi_add_sub $end
    $var wire 1 V! is_slti_blt_slt $end
    $var wire 1 W! is_sltiu_bltu_sltu $end
    $var wire 1 X! is_beq_bne_blt_bge_bltu_bgeu $end
    $var wire 1 Y! is_lbu_lhu_lw $end
    $var wire 1 Z! is_alu_reg_imm $end
    $var wire 1 [! is_alu_reg_reg $end
    $var wire 1 \! is_compare $end
    $var wire 1 ]! is_rdcycle_rdcycleh_rdinstr_rdinstrh $end
    $var wire 64 ^! new_ascii_instr [63:0] $end
    $var wire 64 `! dbg_ascii_instr [63:0] $end
    $var wire 32 b! dbg_insn_imm [31:0] $end
    $var wire 5 c! dbg_insn_rs1 [4:0] $end
    $var wire 5 d! dbg_insn_rs2 [4:0] $end
    $var wire 5 e! dbg_insn_rd [4:0] $end
    $var wire 32 f! dbg_rs1val [31:0] $end
    $var wire 32 g! dbg_rs2val [31:0] $end
    $var wire 1 h! dbg_rs1val_valid $end
    $var wire 1 i! dbg_rs2val_valid $end
    $var wire 64 j! q_ascii_instr [63:0] $end
    $var wire 32 l! q_insn_imm [31:0] $end
    $var wire 32 m! q_insn_opcode [31:0] $end
    $var wire 5 n! q_insn_rs1 [4:0] $end
    $var wire 5 o! q_insn_rs2 [4:0] $end
    $var wire 5 p! q_insn_rd [4:0] $end
    $var wire 1 q! dbg_next $end
    $var wire 1 r! launch_next_insn $end
    $var wire 1 s! dbg_valid_insn $end
    $var wire 64 t! cached_ascii_instr [63:0] $end
    $var wire 32 v! cached_insn_imm [31:0] $end
    $var wire 32 w! cached_insn_opcode [31:0] $end
    $var wire 5 x! cached_insn_rs1 [4:0] $end
    $var wire 5 y! cached_insn_rs2 [4:0] $end
    $var wire 5 z! cached_insn_rd [4:0] $end
    $var wire 8 f" cpu_state_trap [7:0] $end
    $var wire 8 g" cpu_state_fetch [7:0] $end
    $var wire 8 h" cpu_state_ld_rs1 [7:0] $end
    $var wire 8 i" cpu_state_ld_rs2 [7:0] $end
    $var wire 8 j" cpu_state_exec [7:0] $end
    $var wire 8 k" cpu_state_shift [7:0] $end
    $var wire 8 l" cpu_state_stmem [7:0] $end
    $var wire 8 m" cpu_state_ldmem [7:0] $end
    $var wire 8 {! cpu_state [7:0] $end
    $var wire 2 |! irq_state [1:0] $end
    $var wire 128 }! dbg_ascii_state [127:0] $end
    $var wire 1 #" set_mem_do_rinst $end
    $var wire 1 $" set_mem_do_rdata $end
    $var wire 1 %" set_mem_do_wdata $end
    $var wire 1 &" latched_store $end
    $var wire 1 '" latched_stalu $end
    $var wire 1 (" latched_branch $end
    $var wire 1 )" latched_compr $end
    $var wire 1 *" latched_trace $end
    $var wire 1 +" latched_is_lu $end
    $var wire 1 ," latched_is_lh $end
    $var wire 1 -" latched_is_lb $end
    $var wire 5 ." latched_rd [4:0] $end
    $var wire 32 /" current_pc [31:0] $end
    $var wire 4 n" pcpi_timeout_counter [3:0] $end
    $var wire 1 0" pcpi_timeout $end
    $var wire 32 1" next_irq_pending [31:0] $end
    $var wire 1 2" do_waitirq $end
    $var wire 32 3" alu_out [31:0] $end
    $var wire 32 4" alu_out_q [31:0] $end
    $var wire 1 5" alu_out_0 $end
    $var wire 1 6" alu_out_0_q $end
    $var wire 1 7" alu_wait $end
    $var wire 1 8" alu_wait_2 $end
    $var wire 32 9" alu_add_sub [31:0] $end
    $var wire 32 :" alu_shl [31:0] $end
    $var wire 32 ;" alu_shr [31:0] $end
    $var wire 1 <" alu_eq $end
    $var wire 1 =" alu_ltu $end
    $var wire 1 >" alu_lts $end
    $var wire 1 ?" clear_prefetched_high_word_q $end
    $var wire 1 @" cpuregs_write $end
    $var wire 32 A" cpuregs_wrdata [31:0] $end
    $var wire 32 B" cpuregs_rs1 [31:0] $end
    $var wire 32 C" cpuregs_rs2 [31:0] $end
    $var wire 5 o" decoded_rs [4:0] $end
   $upscope $end
  $upscope $end
 $upscope $end
$enddefinitions $end


#0
0#
0$
b00000000000000000000000000000000 %
0&
0'
b00000000000000000000000000000000 (
0)
b00000000000000000000000000000000 *
b00000000000000000000000000000000 +
b1111 ,
0-
b00000000000000000000000000000000 .
b00000000000000000000000000000000 /
b00000000000000000000000000000000 0
b00000000000000000000000000000000 1
02
b000000000000000000000000000000000000 3
b0000000000000000000000000000000000000000000000000000000000000000 5
b0000000000000000000000000000000000000000000000000000000000000000 7
b00000000000000000000000000000000 9
b00000000000000000000000000000000 :
b00000000000000000000000000000000 ;
b00000 <
b00000000000000000000000000000000 =
b00000000000000000000000000000000 >
b00000000000000000000000000000000 ?
b00000000000000000000000000000000 @
0A
0B
b00000000000000000000000000000000 C
b00000000000000000000000000000000 D
b00000000000000000000000000000000 E
b00000000000000000000000000000000 F
b00000000000000000000000000000000 G
b00000000000000000000000000000000 H
b00000000000000000000000000000000 I
b00000000000000000000000000000000 J
b00000000000000000000000000000000 K
b00000000000000000000000000000000 L
b00000000000000000000000000000000 M
b00000000000000000000000000000000 N
b00000000000000000000000000000000 O
b00000000000000000000000000000000 P
b00000000000000000000000000000000 Q
b00000000000000000000000000000000 R
b00000000000000000000000000000000 S
b00000000000000000000000000000000 T
b00000000000000000000000000000000 U
b00000000000000000000000000000000 V
b00000000000000000000000000000000 W
b00000000000000000000000000000000 X
b00000000000000000000000000000000 Y
b00000000000000000000000000000000 Z
b00000000000000000000000000000000 [
b00000000000000000000000000000000 \
b00000000000000000000000000000000 ]
b00000000000000000000000000000000 ^
b00000000000000000000000000000000 _
b00000000000000000000000000000000 `
b00000000000000000000000000000000 a
b00000000000000000000000000000000 b
b00000000000000000000000000000000 c
b00000000000000000000000000000000 d
b00000000000000000000000000000000 e
b00 f
b00 g
b00000000000000000000000000000000 h
0i
0j
0k
0l
0m
0n
0o
0p
0q
0r
0s
0t
0u
0v
0w
0x
0y
0z
0{
0|
0}
0~
0!!
0"!
0#!
0$!
0%!
0&!
0'!
0(!
0)!
0*!
0+!
0,!
0-!
0.!
0/!
00!
01!
02!
03!
04!
05!
06!
07!
08!
09!
0:!
0;!
0<!
0=!
0>!
0?!
0@!
0A!
0B!
0C!
0D!
1E!
b00000 F!
b00000 G!
b00000 H!
b00000000000000000000000000000000 I!
b00000000000000000000000000000000 J!
0K!
0L!
0M!
0N!
0O!
0P!
0Q!
0R!
0S!
0T!
0U!
0V!
0W!
0X!
0Y!
0Z!
0[!
0\!
0]!
b0000000000000000000000000000000000000000000000000000000000000000 ^!
b0000000000000000000000000000000000000000000000000000000000000000 `!
b00000000000000000000000000000000 b!
b00000 c!
b00000 d!
b00000 e!
b00000000000000000000000000000000 f!
b00000000000000000000000000000000 g!
0h!
0i!
b0000000000000000000000000000000000000000000000000000000000000000 j!
b00000000000000000000000000000000 l!
b00000000000000000000000000000000 m!
b00000 n!
b00000 o!
b00000 p!
0q!
0r!
0s!
b0000000000000000000000000000000000000000000000000000000000000000 t!
b00000000000000000000000000000000 v!
b00000000000000000000000000000000 w!
b00000 x!
b00000 y!
b00000 z!
b00000000 {!
b00 |!
b00000000000000000000000000000000000000000000000000000000000000000000000000000000000000000000000000000000000000000000000000000000 }!
0#"
0$"
0%"
0&"
0'"
0("
0)"
0*"
0+"
0,"
0-"
b00000 ."
b00000000000000000000000000000000 /"
00"
b00000000000000000000000000000000 1"
02"
b00000000000000000000000000000000 3"
b00000000000000000000000000000000 4"
05"
06"
07"
08"
b00000000000000000000000000000000 9"
b00000000000000000000000000000000 :"
b00000000000000000000000000000000 ;"
1<"
0="
0>"
0?"
0@"
b00000000000000000000000000000000 A"
b00000000000000000000000000000000 B"
b00000000000000000000000000000000 C"
0D"
0E"
0F"
0G"
0H"
b00000000000000000000000000000000 I"
b00000000000000000000000000000000 J"
b0000 K"
b00000000000000000000000000000000 L"
0M"
1N"
0O"
b00000000000000000000000000000000 P"
b11111111111111111111111111111111 Q"
b00000000000000000000000000010000 R"
0S"
b00000000000000000000000000000000 T"
0U"
0V"
b00000000000000000000000000000000 W"
b00000000000000000000000000000000 X"
b00000000000000000000000000000001 Y"
b00000000000000000000000000000010 Z"
b00000000000000000000000000100000 ["
b00000000000000000000000000000101 \"
b000100000000000000000000000000000000 ]"
b001000000000000000000000000000000000 _"
b100000000000000000000000000000000000 a"
b00000000000000000000000000000000 c"
0d"
b0000000000000000 e"
b10000000 f"
b01000000 g"
b00100000 h"
b00010000 i"
b00001000 j"
b00000100 k"
b00000010 l"
b00000001 m"
b0000 n"
b00000 o"
#1
b11111111111111111111111111111111 C
b01000000 {!
b00000000000000000000000000000000000000000000000000000000000000000000000000000000000000000110011001100101011101000110001101101000 }!
1D"
#2
0D"
#3
1D"
#4
0D"
#5
1D"
#6
0D"
#7
1D"
#8
0D"
#9
1D"
#10
0D"
#11
1#
b0000000000000000000000000000000000000000000000000000000000000001 5
1j
1q
1D"
1E"
#12
0D"
#13
0#
b0000000000000000000000000000000000000000000000000000000000000010 5
b01 f
1D"
1G"
1M"
#14
0D"
#15
b00000000010100000000000100010011 %
b00000000010100000000000100010011 (
b0000000000000000000000000000000000000000000000000000000000000011 5
b00000000010100000000000100010011 =
b00 f
b00000000010100000000000100010011 h
0j
0q
b00010 F!
b00101 H!
b00000000000000000000100000000100 J!
1K!
1Z!
1r!
1D"
0G"
1H"
b00000000010100000000000100010011 L"
#16
0D"
#17
1#
b00000000000000000000000000000000 %
b00000000000000000000000000000100 *
b0000000000000000000000000000000000000000000000000000000000000100 5
b0000000000000000000000000000000000000000000000000000000000000001 7
b00000000000000000000000000000100 :
b00000000010100000000000100010011 >
b00000000000000000000000000000100 @
1i
1q
1&!
0E!
b00000000000000000000000000000101 I!
0K!
1L!
1R!
b0000000000000000000000000000000001100001011001000110010001101001 ^!
b0000000000000000000000000000000001100001011001000110010001101001 `!
b00000000000000000000000000000101 b!
b00101 d!
b00010 e!
1q!
0r!
1s!
b00100000 {!
b00000000000000000000000000000000000000000000000000000000000000000000000000000000011011000110010001011111011100100111001100110001 }!
b00010 ."
1D"
0H"
b00000000000000000000000000000000 L"
#18
0D"
#19
0#
b00000000000000000000000000000101 +
b00000000000000000000000000000101 0
b0000000000000000000000000000000000000000000000000000000000000101 5
b01 f
1j
0L!
1U!
1h!
b0000000000000000000000000000000001100001011001000110010001101001 j!
b00000000000000000000000000000101 l!
b00000000010100000000000100010011 m!
b00101 o!
b00010 p!
0q!
b0000000000000000000000000000000001100001011001000110010001101001 t!
b00000000000000000000000000000101 v!
b00000000010100000000000100010011 w!
b00101 y!
b00010 z!
b00001000 {!
b00000000000000000000000000000000000000000000000000000000000000000000000000000000000000000000000001100101011110000110010101100011 }!
b00000000000000000000000000000101 3"
b00000000000000000000000000000101 9"
0<"
1="
1>"
1D"
1G"
b00000000000000000000000000000100 I"
#20
0D"
#21
b00000000101000000000000110010011 %
b00000000101000000000000110010011 (
b00000000000000000000000000000000 *
b0000000000000000000000000000000000000000000000000000000000000110 5
b00000000000000000000000000000101 ;
b00000000101000000000000110010011 =
b00 f
b00000000101000000000000110010011 h
0i
0j
0q
b00011 F!
b01010 H!
b00000000000000000000000000001010 J!
1K!
1r!
b01000000 {!
b00000000000000000000000000000000000000000000000000000000000000000000000000000000000000000110011001100101011101000110001101101000 }!
1&"
1'"
b00000000000000000000000000000101 4"
1@"
b00000000000000000000000000000101 A"
1D"
0G"
1H"
b00000000101000000000000110010011 L"
#22
0D"
#23
1#
b00000000000000000000000000000000 %
b00000000000000000000000000001000 *
b0000000000000000000000000000000000000000000000000000000000000111 5
b0000000000000000000000000000000000000000000000000000000000000010 7
b00000000000000000000000000000100 9
b00000000000000000000000000001000 :
b00000000000000000000000000000000 ;
b00000000101000000000000110010011 >
b00000000000000000000000000000100 ?
b00000000000000000000000000001000 @
b00000000000000000000000000000101 H
1i
1q
b00000000000000000000000000001010 I!
0K!
1L!
0U!
b00000000000000000000000000001010 b!
b01010 d!
b00011 e!
0h!
1q!
0r!
b00100000 {!
b00000000000000000000000000000000000000000000000000000000000000000000000000000000011011000110010001011111011100100111001100110001 }!
0&"
0'"
b00011 ."
b00000000000000000000000000000000 3"
0@"
b00000000000000000000000000000000 A"
1D"
0H"
b00000000000000000000000000000000 L"
#24
0D"
#25
0#
b00000000000000000000000000001010 +
b00000000000000000000000000001010 0
b0000000000000000000000000000000000000000000000000000000000001000 5
b01 f
1j
0L!
1U!
1h!
b00000000000000000000000000001010 l!
b00000000101000000000000110010011 m!
b01010 o!
b00011 p!
0q!
b00000000000000000000000000001010 v!
b00000000101000000000000110010011 w!
b01010 y!
b00011 z!
b00001000 {!
b00000000000000000000000000000000000000000000000000000000000000000000000000000000000000000000000001100101011110000110010101100011 }!
b00000000000000000000000000001010 3"
b00000000000000000000000000000000 4"
b00000000000000000000000000001010 9"
1D"
1G"
b00000000000000000000000000001000 I"
#26
0D"
#27
b00000000001100010000000010110011 %
b00000000001100010000000010110011 (
b00000000000000000000000000000000 *
b0000000000000000000000000000000000000000000000000000000000001001 5
b00000000000000000000000000001110 ;
b00000000001100010000000010110011 =
b00 f
b00000000001100010000000010110011 h
0i
0j
0q
b00001 F!
b00010 G!
b00011 H!
b00000000000000010000100000000010 J!
1K!
0Z!
1[!
1r!
b01000000 {!
b00000000000000000000000000000000000000000000000000000000000000000000000000000000000000000110011001100101011101000110001101101000 }!
1&"
1'"
b00000000000000000000000000001010 4"
1@"
b00000000000000000000000000001010 A"
b00000000000000000000000000000101 B"
1D"
0G"
1H"
b00000000001100010000000010110011 L"
#28
0D"
#29
1#
b00000000000000000000000000000000 %
b00000000000000000000000000001100 *
b0000000000000000000000000000000000000000000000000000000000001010 5
b0000000000000000000000000000000000000000000000000000000000000011 7
b00000000000000000000000000001000 9
b00000000000000000000000000001100 :
b00000000000000000000000000000000 ;
b00000000001100010000000010110011 >
b00000000000000000000000000001000 ?
b00000000000000000000000000001100 @
b00000000000000000000000000001010 I
1i
1q
0&!
1/!
b00000000000000000000000000000000 I!
0K!
1L!
0R!
0U!
b0000000000000000000000000000000000000000011000010110010001100100 ^!
b0000000000000000000000000000000000000000011000010110010001100100 `!
b00000000000000000000000000000000 b!
b00010 c!
b00011 d!
b00001 e!
0h!
1q!
0r!
b00100000 {!
b00000000000000000000000000000000000000000000000000000000000000000000000000000000011011000110010001011111011100100111001100110001 }!
0&"
0'"
b00001 ."
b00000000000000000000000000000000 3"
0@"
b00000000000000000000000000000000 A"
b00000000000000000000000000001010 C"
1D"
0H"
b00000000000000000000000000000000 L"
#30
0D"
#31
0#
b00000000000000000000000000000101 /
b0000000000000000000000000000000000000000000000000000000000001011 5
b01010 <
b01 f
1j
0L!
1U!
b00000000000000000000000000000101 f!
b00000000000000000000000000001010 g!
1h!
1i!
b0000000000000000000000000000000000000000011000010110010001100100 j!
b00000000000000000000000000000000 l!
b00000000001100010000000010110011 m!
b00010 n!
b00011 o!
b00001 p!
0q!
b0000000000000000000000000000000000000000011000010110010001100100 t!
b00000000000000000000000000000000 v!
b00000000001100010000000010110011 w!
b00010 x!
b00011 y!
b00001 z!
b00001000 {!
b00000000000000000000000000000000000000000000000000000000000000000000000000000000000000000000000001100101011110000110010101100011 }!
b00000000000000000000000000001111 3"
b00000000000000000000000000000000 4"
b00000000000000000000000000001111 9"
b00000000000000000001010000000000 :"
1D"
1G"
b00000000000000000000000000001100 I"
#32
0D"
#33
b01000000000100010000000100110011 %
b01000000000100010000000100110011 (
b00000000000000000000000000000100 *
b0000000000000000000000000000000000000000000000000000000000001100 5
b00000000000000000000000000001000 ;
b00000 <
b01000000000100010000000100110011 =
b00 f
b01000000000100010000000100110011 h
0i
0j
0q
b00010 F!
b00001 H!
b00000000000000010000110000000000 J!
1K!
1r!
b01000000 {!
b00000000000000000000000000000000000000000000000000000000000000000000000000000000000000000110011001100101011101000110001101101000 }!
1&"
1'"
b00000000000000000000000000001111 4"
1@"
b00000000000000000000000000001111 A"
b00000000000000000000000000000000 C"
1D"
0G"
1H"
b01000000000100010000000100110011 L"
#34
0D"
#35
1#
b00000000000000000000000000000000 %
b00000000000000000000000000010000 *
b0000000000000000000000000000000000000000000000000000000000001101 5
b0000000000000000000000000000000000000000000000000000000000000100 7
b00000000000000000000000000001100 9
b00000000000000000000000000010000 :
b00000000000000000000000000000000 ;
b01000000000100010000000100110011 >
b00000000000000000000000000001100 ?
b00000000000000000000000000010000 @
b00000000000000000000000000001111 G
1i
1q
0/!
10!
0K!
1L!
0U!
b0000000000000000000000000000000000000000011100110111010101100010 ^!
b0000000000000000000000000000000000000000011100110111010101100010 `!
b00001 d!
b00010 e!
b00000000000000000000000000000000 f!
b00000000000000000000000000000000 g!
0h!
0i!
1q!
0r!
b00100000 {!
b00000000000000000000000000000000000000000000000000000000000000000000000000000000011011000110010001011111011100100111001100110001 }!
0&"
0'"
b00010 ."
b00000000000000000000000000000000 3"
b11111111111111111111111111111011 9"
0@"
b00000000000000000000000000000000 A"
b00000000000000000000000000001111 C"
1D"
0H"
b00000000000000000000000000000000 L"
#36
0D"
#37
0#
b00000000000000000000000000001111 +
b00000000000000000000000000001111 0
b0000000000000000000000000000000000000000000000000000000000001110 5
b01111 <
b01 f
1j
0L!
1U!
b00000000000000000000000000000101 f!
b00000000000000000000000000001111 g!
1h!
1i!
b0000000000000000000000000000000000000000011100110111010101100010 j!
b01000000000100010000000100110011 m!
b00001 o!
b00010 p!
0q!
b0000000000000000000000000000000000000000011100110111010101100010 t!
b01000000000100010000000100110011 w!
b00001 y!
b00010 z!
b00001000 {!
b00000000000000000000000000000000000000000000000000000000000000000000000000000000000000000000000001100101011110000110010101100011 }!
b11111111111111111111111111110110 3"
b00000000000000000000000000000000 4"
b11111111111111111111111111110110 9"
b00000000000000101000000000000000 :"
1D"
1G"
b00000000000000000000000000010000 I"
#38
0D"
#39
b00000000001000001000000110110011 %
b00000000001000001000000110110011 (
b00000000000000000000000000000100 *
b0000000000000000000000000000000000000000000000000000000000001111 5
b00000000000000000000000000001100 ;
b00000 <
b00000000001000001000000110110011 =
b00 f
b00000000001000001000000110110011 h
0i
0j
0q
b00011 F!
b00001 G!
b00010 H!
b00000000000000001000000000000010 J!
1K!
1r!
b01000000 {!
b00000000000000000000000000000000000000000000000000000000000000000000000000000000000000000110011001100101011101000110001101101000 }!
1&"
1'"
b11111111111111111111111111110110 4"
1@"
b11111111111111111111111111110110 A"
b00000000000000000000000000001111 B"
b00000000000000000000000000000101 C"
1D"
0G"
1H"
b00000000001000001000000110110011 L"
#40
0D"
